24

86 28
14
39 1
79 0
22 7
59 19
63 0
30 3
59 8
68 25
19 4
33 11
30 19
27 14
73 24
60 16
68 5

34 57
10
25 39
7 53
12 4
28 19
2 5
22 51
21 14
26 39
14 36
3 53
119 147

74 13
12
62 9
21 5
49 10
43 11
22 1
48 4
33 3
62 11
53 5
51 6
4 12
30 8
191 193

56 63
20
11 43
4 34
21 58
15 20
41 44
38 61
41 18
46 58
24 28
1 40
18 23
37 42
47 33
39 19
11 3
19 31
44 14
36 16
43 18
38 50
176 167

34 18
24
5 5
30 12
21 1
20 6
12 1
0 2
16 9
32 3
27 7
21 6
28 5
2 2
0 9
28 16
18 17
12 16
12 3
11 8
8 12
2 12
25 13
5 15
12 3
33 9
2 171

30 31
5
0 7
22 3
24 17
5 9
5 28
124 158

30 60
26
10 31
7 37
18 36
13 23
13 22
19 46
1 15
12 53
15 4
11 33
8 7
5 10
20 41
29 14
21 55
26 55
15 42
14 37
25 39
0 13
21 19
20 10
15 24
2 59
2 17
10 2
125 69

86 20
18
17 3
33 10
80 2
77 16
49 11
24 12
28 12
76 8
28 13
79 17
44 13
45 0
18 18
42 2
38 13
29 4
6 8
11 0
183 106

84 19
23
45 15
33 16
69 17
50 10
61 17
57 9
54 18
14 14
80 8
23 7
53 17
11 15
68 14
78 9
77 12
9 10
82 13
80 17
66 12
65 10
64 4
71 11
18 1
31 88

14 72
25
9 59
8 19
10 31
7 21
6 46
0 21
10 69
5 3
7 64
9 37
1 48
12 69
12 62
8 3
8 38
4 11
3 24
12 24
11 18
0 3
9 22
0 51
13 35
13 61
3 33
185 198

68 78
1
37 42
175 116

21 15
30
3 10
5 6
2 5
15 13
1 1
6 0
7 7
9 4
13 3
5 6
5 4
4 13
17 11
12 1
9 8
18 7
13 6
9 0
13 12
20 7
7 9
7 9
16 4
18 5
9 3
18 13
16 2
3 5
13 3
3 11
31 56

32 23
5
0 7
24 5
5 22
21 3
18 0
99 170

64 100
8
62 90
35 34
40 45
63 61
61 71
37 49
8 71
26 70
51 44

5 90
26
4 49
1 67
4 69
0 53
0 30
1 49
2 13
4 16
4 88
3 49
3 75
0 57
0 48
4 71
2 6
0 80
4 3
2 54
0 6
3 77
0 39
1 49
3 22
1 46
3 34
4 73
196 7

69 33
9
65 18
5 13
59 16
15 16
27 6
51 17
6 7
59 23
16 20
185 140

7 11
1
3 8
47 96

41 57
27
31 7
1 45
2 54
8 42
25 15
33 41
11 46
31 50
2 6
21 36
3 46
5 14
39 10
25 35
5 16
8 36
32 23
17 27
26 30
17 56
2 27
16 23
1 37
28 20
37 17
40 18
11 3
63 71

29 84
12
2 3
23 47
24 46
14 49
3 2
5 64
13 17
10 58
11 18
8 44
15 40
2 81
190 25

35 98
20
2 63
6 30
18 27
3 12
26 44
13 54
4 45
22 63
16 3
26 62
29 66
32 74
16 42
28 3
25 96
8 29
11 11
17 31
6 95
16 66
70 196

54 49
21
25 34
53 17
11 29
15 38
38 22
17 43
42 18
53 46
42 37
52 46
46 11
19 17
16 46
10 42
22 4
35 6
1 23
8 1
34 45
0 42
41 43
171 146

45 10
10
42 9
6 5
20 9
23 6
41 1
28 8
10 2
10 6
21 7
3 4
162 111

63 59
13
40 44
2 51
17 54
62 51
18 58
3 38
58 22
12 24
52 58
59 38
55 36
3 36
1 17
196 193

81 69
14
39 23
67 14
30 3
37 62
8 42
29 21
8 9
38 39
73 62
66 45
50 38
52 39
22 45
15 11
115 19
